# transform data works

    # A tibble: 32 × 6
        Year `Black Rhino` `Indian Rhino` `Javan Rhino` `Southern White Rhino`
       <dbl>         <dbl>          <dbl>         <dbl>                  <dbl>
     1  1895            NA             NA            NA                     20
     2  1910            NA             40            NA                     NA
     3  1929            NA             NA            NA                    150
     4  1948            NA             NA            NA                    550
     5  1960        100000             NA            NA                     NA
     6  1965            NA             NA            25                     NA
     7  1966            NA             40            NA                     NA
     8  1968            NA             NA            NA                   1800
     9  1970         65000             NA            NA                     NA
    10  1972            NA            670            NA                     NA
    # ℹ 22 more rows
    # ℹ 1 more variable: `Sumatran Rhino` <dbl>
